SAGRA
RUC: 20261122651

Diego de la Cruz
Cel: 934957211
Whatsapp: 971362680


SAGRA ESTE
TEAM: 736027624 
76t1bh

SAGRA NORTE
ANY: 541712873

SAGRA SUR:
ANY: 926557141 

SAGRA HUANUCO
ANY: win-u64kb3nqilh@ad -> 1976@hotmail.com
ANY: 605564937 -> juansobero

SAGRA INTI	- F005
TEAM: 289605107 -> 5237
ANY: win-a7hpbha8jkv@ad
Calle Viviate 130 urb Los Sauces ATE VITARTE
Telf: 326-5452




1.	SAGRA ESTE                  F001 – B001		Actualizar SAGRA -> sagra, realizar pruebas de exec
2.	SAGRA NORTE                 F002 – B002		Actualizar serie en local
3.	SAGRA SUR                   F003 – B003		
4.	SAGRA HUANUCO         		F004 – B004
5.  SAGRA INTI					F005 - B005		
	TEAM: 289605107 -> 5448 -> 5448 --> 3317
